{
  "Sheet1" : [
    {
      "ID" : "1001",
      "Name" : "Nightline",
      "About us" : "A confidential and impartial listening and information service run by students for students",
      "Category" : "UEA",
      "Email Address" : "listening@norwich.ni",
      "Location" : "Currently moving",
      "Contact Number" : "01603 597158",
      "Website" : "www.norwich.nightline.ac.uk"
    },
    {
      "ID" : "1002",
      "Name" : "UEA Medical Centre",
      "About us" : "GP appointments, occupational health, dentist and pharmacy",
      "Category" : "UEA",
      "Email Address" : "umsuea@nhs.net",
      "Location" : "University Medical Centre \nUniversity of East Anglia \nEarlham Road \nNorwich \nNorfolk \nNR4 7TJ",
      "Contact Number" : "01603 251600",
      "Website" : "www.umsuea.co.uk/"
    },
    {
      "ID" : "1003",
      "Name" : "Advisor",
      "About us" : "Academic, professional and personal advice, guidance and support",
      "Category" : "UEA",
      "Email Address" : "-",
      "Location" : "-",
      "Contact Number" : "-",
      "Website" : "www.portal.uea.ac.uk/learning-and-teaching/students/the-basics/advisers"
    },
    {
      "ID" : "1004",
      "Name" : "Senior Resident",
      "About us" : "High quality advice, guidance and support to students living in residences, to create a positive living environment",
      "Category" : "UEA",
      "Email Address" : "-",
      "Location" : "-",
      "Contact Number" : "-",
      "Website" : "www.lred.uea.ac.uk/documents/6207125/7191250/Senior+Residents+2015-16+by+team.pdf/d4142e83-83fe-41be-b58e-80e6157346ef"
    },
    {
      "ID" : "1005",
      "Name" : "UEA Careers Centre",
      "About us" : "One-to-one advice, careers mentoring, internships, part-time job, graduate level jobs, starting your own business, working abroad",
      "Category" : "UEA",
      "Email Address" : "career.central@uea.ac.uk",
      "Location" : "The Street \nNorwich \nNorfolk\nNR4 7TU",
      "Contact Number" : "01603 593452",
      "Website" : "www.mycareercentral.uea.ac.uk"
    },
    {
      "ID" : "1006",
      "Name" : "Home Run",
      "About us" : "A private sector letting agency managed by the Student Union",
      "Category" : "SU",
      "Email Address" : "homerun@uea.ac.uk",
      "Location" : "Union House",
      "Contact Number" : "01603 592505",
      "Website" : "www.homerunstudentpad.co.uk"
    },
    {
      "ID" : "1007",
      "Name" : "UEA Pride",
      "About us" : "Welfare support and social opportunities to UEA's LGBT+ students",
      "Category" : "SU",
      "Email Address" : "-",
      "Location" : "-",
      "Contact Number" : "-",
      "Website" : "www.ueastudent.com/groups/pride"
    },
    {
      "ID" : "1008",
      "Name" : "UEA Student Support Services",
      "About us" : "A range of professional, proactive and approachable services for students",
      "Category" : "SU",
      "Email Address" : "-",
      "Location" : "-",
      "Contact Number" : "-",
      "Website" : "portal.uea.ac.uk/student-support-service"
    },
    {
      "ID" : "1009",
      "Name" : "UEA Counselling and Mental Health",
      "About us" : "Support for students experiencing psychological and emotional distress",
      "Category" : "UEA",
      "Email Address" : "studentsupport@uea.ac.uk",
      "Location" : "The Student Support Centre",
      "Contact Number" : "01603 592761",
      "Website" : "https://portal.uea.ac.uk/student-support-service/counselling-and-mental-health"
    },
    {
      "ID" : "1010",
      "Name" : "UEA Study Skills",
      "About us" : "Expert guidance on study skills, mathematics and statistics, academic writing, use of English",
      "Category" : "UEA",
      "Email Address" : "",
      "Location" : "",
      "Contact Number" : "",
      "Website" : "https://portal.uea.ac.uk/student-support-service/learning-enhancement/study-resources/academic-writing-study-skills"
    },
    {
      "ID" : "1011",
      "Name" : "UEA Finance",
      "About us" : "Impartial, non-judgemental advice, funding support, budgeting and money management, bursaries, grants and scholarships, dealing with debat and hardship funds",
      "Category" : "UEA",
      "Email Address" : "",
      "Location" : "",
      "Contact Number" : "",
      "Website" : "https://portal.uea.ac.uk/finance"
    },
    {
      "ID" : "1012",
      "Name" : "UEA Disability",
      "About us" : "Assist students to realise their potential , participate fully in university life and be well prepared for their future",
      "Category" : "UEA",
      "Email Address" : "studentsupport@uea.ac.uk",
      "Location" : "The Student Support Centre Reception",
      "Contact Number" : "01603 592761",
      "Website" : "https://portal.uea.ac.uk/student-support-service/disability"
    },
    {
      "ID" : "1013",
      "Name" : "UEA Student Conduct and Harassment",
      "About us" : "Specialist support for all instances of student misconduct, bullying, harassment, and sexual or domestic violence",
      "Category" : "UEA",
      "Email Address" : "",
      "Location" : "",
      "Contact Number" : "",
      "Website" : "https://portal.uea.ac.uk/student-support-service/student-conduct-and-haras"
    },
    {
      "ID" : "1014",
      "Name" : "UEA International Students",
      "About us" : "Advice and guidance, visa support, social programme, English language support, volunteering opportunities",
      "Category" : "UEA",
      "Email Address" : "",
      "Location" : "",
      "Contact Number" : "",
      "Website" : ""
    },
    {
      "ID" : "1015",
      "Name" : "UEA Accommodation",
      "About us" : "",
      "Category" : "UEA",
      "Email Address" : "",
      "Location" : "",
      "Contact Number" : "",
      "Website" : "https://portal.uea.ac.uk/accommodation"
    },
    {
      "ID" : "1016",
      "Name" : "UEA Security",
      "About us" : "Provide a safe and secure environment for all staff, students and visitors to UEA campus - personal safety, property safety, lost property",
      "Category" : "UEA",
      "Email Address" : "-",
      "Location" : "The Lodge\r\nUniversity & Chancellor Drive\r\n",
      "Contact Number" : "01603 592222",
      "Website" : "-"
    },
    {
      "ID" : "1017",
      "Name" : "SU Academic Advice",
      "About us" : "Advice on exam feedback, changing course, moving to a different university, taking a year out, guidance through the university's appeal, complaints and disciplinary procedures",
      "Category" : "SU",
      "Email Address" : "advicecentre@uea.ac.uk   or   union.info@uea.ac.uk",
      "Location" : "UEA Students' Union\r\nUnion House\r\nUniversity of East Anglia\r\nNorwich\r\nNR4 7TJ",
      "Contact Number" : "01603 593463",
      "Website" : "https://www.uea.su/advice-housing/academicadvice/"
    },
    {
      "ID" : "1018",
      "Name" : "SU Employment Advice",
      "About us" : "",
      "Category" : "SU",
      "Email Address" : "advicecentre@uea.ac.uk   or   union.info@uea.ac.uk",
      "Location" : "UEA Students' Union\r\nUnion House\r\nUniversity of East Anglia\r\nNorwich\r\nNR4 7TJ",
      "Contact Number" : "01603 593463",
      "Website" : "https://www.uea.su/advice-housing/workmoney/"
    },
    {
      "ID" : "1019",
      "Name" : "SU Money Advice",
      "About us" : "Help and advice with Student Finance, funding studies, availability of benefits and how to apply for them, council tax liability, debt and support, and budgeting.",
      "Category" : "SU",
      "Email Address" : "advicecentre@uea.ac.uk   or   union.info@uea.ac.uk",
      "Location" : "UEA Students' Union\r\nUnion House\r\nUniversity of East Anglia\r\nNorwich\r\nNR4 7TJ",
      "Contact Number" : "01603 593463",
      "Website" : "https://www.uea.su/advice-housing/workmoney/"
    },
    {
      "ID" : "1020",
      "Name" : "SU Housing Advice",
      "About us" : "Help and advice with finding accomodation, pre-signature tenancy checks, sorting housemate issues, getting your deposit protected, legal rights and responsibilites as a tenant, requesting repairs to your house, Council Tax liability, rights and responibilities of your landlord, living in rented accomodation, and any other problems you may face living in University residences.",
      "Category" : "SU",
      "Email Address" : "advicecentre@uea.ac.uk   or   union.info@uea.ac.uk",
      "Location" : "UEA Students' Union\r\nUnion House\r\nUniversity of East Anglia\r\nNorwich\r\nNR4 7TJ",
      "Contact Number" : "01603 593463",
      "Website" : "https://www.uea.su/advice-housing/housingadvice/"
    },
    {
      "ID" : "1021",
      "Name" : "SU Health and Wellbeing",
      "About us" : "Offers information a wide range of topics, as well as a listening ear for students with personal issues, signposting to other university and external services and try to mediate if you have housemate problems.",
      "Category" : "SU",
      "Email Address" : "advicecentre@uea.ac.uk   or   union.info@uea.ac.uk",
      "Location" : "UEA Students' Union\nUnion House\nUniversity of East Anglia\nNorwich\nNR4 7TJ",
      "Contact Number" : "01603 593463",
      "Website" : "https://www.uea.su/advice-housing/healthwellbeing/"
    },
    {
      "ID" : "1022",
      "Name" : "SU Faith and Spirituality",
      "About us" : "",
      "Category" : "SU",
      "Email Address" : "union.info@uea.ac.uk",
      "Location" : "UEA Students' Union\r\nUnion House\r\nUniversity of East Anglia\r\nNorwich\r\nNR4 7TJ",
      "Contact Number" : "01603 593463",
      "Website" : "https://www.uea.su/campaigns/faithandspirituality/"
    },
    {
      "ID" : "1023",
      "Name" : "SU International Students",
      "About us" : "",
      "Category" : "SU",
      "Email Address" : "union.info@uea.ac.uk",
      "Location" : "UEA Students' Union\r\nUnion House\r\nUniversity of East Anglia\r\nNorwich\r\nNR4 7TJ",
      "Contact Number" : "01603 593463",
      "Website" : "https://www.uea.su/international/"
    },
    {
      "ID" : "1024",
      "Name" : "SU Clubs and Societies",
      "About us" : "",
      "Category" : "SU",
      "Email Address" : "union.info@uea.ac.uk",
      "Location" : "UEA Students' Union\r\nUnion House\r\nUniversity of East Anglia\r\nNorwich\r\nNR4 7TJ",
      "Contact Number" : "01603 593463",
      "Website" : "https://www.uea.su/opportunities/clubs/"
    },
    {
      "ID" : "1025",
      "Name" : "FRANK",
      "About us" : "",
      "Category" : "Off-campus",
      "Email Address" : "recovery@norfolkrecoverypartnership.org.uk",
      "Location" : "7 Unthank Road\r\nNorfolk\r\nNorwich \r\nNR2 2PA",
      "Contact Number" : "0300 7900 227",
      "Website" : "www.norfolkrecoverypartnership.org.uk "
    },
    {
      "ID" : "1026",
      "Name" : "Sexual Assault Awareness Committee (SAAC)",
      "About us" : "",
      "Category" : "UEA",
      "Email Address" : "-",
      "Location" : "-",
      "Contact Number" : "-",
      "Website" : "www.facebook.com/SAACuea"
    },
    {
      "ID" : "1027",
      "Name" : "Samaritans",
      "About us" : "",
      "Category" : "Off-campus",
      "Email Address" : "jo@samaritans.org",
      "Location" : "19 St. Stephen's Square\r\nNorwich\r\nNorfolk\r\nNR1 3SS",
      "Contact Number" : "116 123",
      "Website" : ""
    },
    {
      "ID" : "1028",
      "Name" : "MIND",
      "About us" : "",
      "Category" : "Off-campus",
      "Email Address" : "headoffice@norwichmind.org.uk",
      "Location" : "50 Sale Road\r\nNorwich\r\nNorfolk\r\nNR7 9TP",
      "Contact Number" : "01603 432 457",
      "Website" : "www.norwichmind.org.uk "
    },
    {
      "ID" : "1029",
      "Name" : "Eating Matters",
      "About us" : "",
      "Category" : "",
      "Email Address" : "eatingmatters@norfolkeda.org.uk",
      "Location" : "34 Colegate\r\nNorwich\r\nNoroflk\r\nNR3 1BG",
      "Contact Number" : "01603 767062",
      "Website" : "www.eatingmatters.org.uk "
    },
    {
      "ID" : "1030",
      "Name" : "B-eat",
      "About us" : "",
      "Category" : "Off-campus",
      "Email Address" : "help@b-eat.co.uk",
      "Location" : "-",
      "Contact Number" : "0808 801 0677",
      "Website" : "www.b-eat.co.uk "
    },
    {
      "ID" : "1031",
      "Name" : "Wellbeing Norfolk & Waveney",
      "About us" : "",
      "Category" : "Off-campus",
      "Email Address" : "-",
      "Location" : "The Annex\r\nHolland Court\r\nThe Close\r\nNorwich\r\nNR1 4DY",
      "Contact Number" : "0300 123 1503",
      "Website" : "www.wellbeingnands.co.uk"
    },
    {
      "ID" : "1032",
      "Name" : "Citizens Advice",
      "About us" : "",
      "Category" : "Off-campus",
      "Email Address" : "public@ncab.org.uk",
      "Location" : "St Crispin's House St Georges Street\r\nNORWICH\r\nNorfolk\r\nNR3 1PD",
      "Contact Number" : "03444 111 444",
      "Website" : "www.norfolkcab.org.uk"
    },
    {
      "ID" : "1033",
      "Name" : "The Matthew Project (Youth Team)",
      "About us" : "",
      "Category" : "Off-campus",
      "Email Address" : "-",
      "Location" : "Gateway, Unit 8\r\n83-87 Pottergate\r\nNoriwch\r\nNR2 1DZ",
      "Contact Number" : "08458688172",
      "Website" : "www.matthewproject.org"
    },
    {
      "ID" : "1034",
      "Name" : "The Matthew Project (On Track)",
      "About us" : "",
      "Category" : "Off-campus",
      "Email Address" : "-",
      "Location" : "Nedeham House\r\n22 St. Stephens Road\r\nNorwich\r\nNR1 3QU",
      "Contact Number" : "01603 723845",
      "Website" : "www.matthewproject.org"
    },
    {
      "ID" : "1035",
      "Name" : "The Matthew Project (Unity)",
      "About us" : "",
      "Category" : "Off-campus",
      "Email Address" : "-",
      "Location" : "Gateway, Unit 8\n83-87 Pottergate\nNoriwch\nNR2 1DZ",
      "Contact Number" : "01603 216420",
      "Website" : "www.matthewproject.org"
    },
    {
      "ID" : "1036",
      "Name" : "iCaSH",
      "About us" : "",
      "Category" : "Off-campus",
      "Email Address" : "-",
      "Location" : "1a Oak Street\r\nNorwich\r\nNorfolk\r\nNR3 3AE",
      "Contact Number" : "0300 300 3030",
      "Website" : "www.icash.nhs.uk/"
    },
    {
      "ID" : "1037",
      "Name" : "iCaSH",
      "About us" : "",
      "Category" : "Off-campus",
      "Email Address" : "-",
      "Location" : "1a Oak Street\r\nNorwich\r\nNorfolk\r\nNR3 3AE",
      "Contact Number" : "0300 300 3030",
      "Website" : "www.icash.nhs.uk/"
    },
    {
      "ID" : "1036",
      "Name" : "iCaSH",
      "About us" : "",
      "Category" : "Off-campus",
      "Email Address" : "-",
      "Location" : "1a Oak Street\r\nNorwich\r\nNorfolk\r\nNR3 3AE",
      "Contact Number" : "0300 300 3030",
      "Website" : "www.icash.nhs.uk/"
    },
    {
      "ID" : "1038",
      "Name" : "iCaSH",
      "About us" : "",
      "Category" : "Off-campus",
      "Email Address" : "-",
      "Location" : "1a Oak Street\r\nNorwich\r\nNorfolk\r\nNR3 3AE",
      "Contact Number" : "0300 300 3030",
      "Website" : "www.icash.nhs.uk/"
    },
    {
      "ID" : "1039",
      "Name" : "iCaSH",
      "About us" : "",
      "Category" : "Off-campus",
      "Email Address" : "-",
      "Location" : "1a Oak Street\r\nNorwich\r\nNorfolk\r\nNR3 3AE",
      "Contact Number" : "0300 300 3030",
      "Website" : "www.icash.nhs.uk/"
    },
    {
      "ID" : "1040",
      "Name" : "iCaSH",
      "About us" : "",
      "Category" : "Off-campus",
      "Email Address" : "-",
      "Location" : "1a Oak Street\r\nNorwich\r\nNorfolk\r\nNR3 3AE",
      "Contact Number" : "0300 300 3030",
      "Website" : "www.icash.nhs.uk/"
    },
    {
      "ID" : "1041",
      "Name" : "iCaSH",
      "About us" : "",
      "Category" : "Off-campus",
      "Email Address" : "-",
      "Location" : "1a Oak Street\r\nNorwich\r\nNorfolk\r\nNR3 3AE",
      "Contact Number" : "0300 300 3030",
      "Website" : "www.icash.nhs.uk/"
    },
    {
      "ID" : "1042",
      "Name" : "iCaSH",
      "About us" : "",
      "Category" : "Off-campus",
      "Email Address" : "-",
      "Location" : "1a Oak Street\r\nNorwich\r\nNorfolk\r\nNR3 3AE",
      "Contact Number" : "0300 300 3030",
      "Website" : "www.icash.nhs.uk/"
    }
  ]
}
